# GRUB2 sugar-candy Linux theme
# Designed for any resolution

# Global Property
title-text: ""
desktop-image: "background_12_it.png"
desktop-color: "#000000"
terminal-font: "Terminus Regular 14"
terminal-box: "terminal_box_*.png"
terminal-left: "0"
terminal-top: "0"
terminal-width: "100%"
terminal-height: "100%"
terminal-border: "0"

# Show the boot menu
+ boot_menu {
  left = 58
  top = 30%
  width = 30%
  height = 40%
  item_font = "Unifont Regular 16"
  item_color = "#cccccc"
  selected_item_color = "#ffffff"
  icon_width = 32
  icon_height = 32
  item_icon_space = 20
  item_height = 36
  item_padding = 5
  item_spacing = 10
  selected_item_pixmap_style = "select_*.png"
}

# Info image
+ image {
  top = 100%-50
  left = 110
  width = 480
  height = 42
  file = "info.png"
}

# Show a countdown message using the label component
+ label {
  top = 85%
  left = 5
  width = 36%
  align = "center"
  id = "__timeout__"
  text = "Booting in %d seconds"
  color = "#cccccc"
  font = "Unifont Regular 16"
}
